debt_fedrate.r
…
df1960=df %>% filter(year>1960)

rep(1:3,each=20)

##  [1] 1 1 1 1 1 1 1 1 1 1 1 1 1 1 1 1 1 1 1 1 2 2 2 2 2 2 2 2 2 2 2 2 2 2 2 2 2 2
## [39] 2 2 3 3 3 3 3 3 3 3 3 3 3 3 3 3 3 3 3 3 3 3

df1960=df1960 %>% mutate(decade=rep(1:3,each=20))
df1960

## # A tibble: 60 x 13
##    year  frate tp_all tp_ld h_all  h_ld nf_all nf_ld gener~1 Centr~2   gdp Class
##    <chr> <dbl>  <dbl> <dbl> <dbl> <dbl>  <dbl> <dbl>   <dbl>   <dbl> <dbl> <chr>
##  1 1961   1.95   562.  453.  243.  238.   319.  215.    343.    272.  559. Train
##  2 1962   2.71   607.  493.  265.  260.   342.  233.    356.    280.  600. Train
##  3 1963   3.18   664.  540.  294.  288.   369.  252.    367.    286.  633. Train
##  4 1964   3.50   723.  591.  323.  317.   399.  274.    381.    293.  680. Train
##  5 1965   4.08   796.  650.  353.  346.   444.  304.    391.    297.  737. Train
##  6 1966   5.11   862.  707.  376.  368.   486.  338.    405.    304.  808. Train
##  7 1967   4.22   935.  773.  411.  402.   524.  371.    430.    320.  854. Train
##  8 1968   5.66  1018.  839.  436.  427.   582.  413.    455.    334.  933. Train
##  9 1969   8.21  1116.  914.  464.  453.   652.  461.    463.    332. 1009. Train
## 10 1970   7.17  1185.  979.  479.  467.   706.  512.    492.    347. 1064. Train
## # ... with 50 more rows, 1 more variable: decade <int>, and abbreviated
## #   variable names 1: general_gov, 2: Central_gov
…
